<?xml version="1.0" encoding="UTF-8" standalone="no"?>
<!-- Created with Inkscape (http://www.inkscape.org/) -->
<svg
   xmlns:svg="http://www.w3.org/2000/svg"
   xmlns="http://www.w3.org/2000/svg"
   version="1.0"
   width="847.51306"
   height="32.786705"
   id="svg14186">
  <defs
     id="defs14188" />
  <g
     transform="translate(-4.814898,-481.68311)"
     id="layer1">
    <rect
       width="847.51306"
       height="32.786705"
       x="4.814898"
       y="481.68311"
       id="rect11475"
       style="fill:#ffffff;fill-opacity:0.78431373;fill-rule:evenodd;stroke:none;stroke-width:3.21799994;stroke-linecap:round;stroke-linejoin:round;stroke-miterlimit:4;stroke-dasharray:none;stroke-dashoffset:0;stroke-opacity:0.78431373" />
  </g>
</svg>
