<?xml version="1.0" encoding="UTF-8" standalone="no"?>
<!-- Created with Inkscape (http://www.inkscape.org/) -->
<svg
   xmlns:svg="http://www.w3.org/2000/svg"
   xmlns="http://www.w3.org/2000/svg"
   version="1.0"
   width="847.51306"
   height="32.786705"
   id="svg14230">
  <defs
     id="defs14232" />
  <g
     transform="translate(186.61368,-544.54028)"
     id="layer1">
    <rect
       width="847.51306"
       height="32.786705"
       x="-186.61368"
       y="544.54028"
       id="rect11477"
       style="fill:#ffffff;fill-opacity:0.70588235;fill-rule:evenodd;stroke:none;stroke-width:3.21799994;stroke-linecap:round;stroke-linejoin:round;stroke-miterlimit:4;stroke-dasharray:none;stroke-dashoffset:0;stroke-opacity:0.78431373" />
  </g>
</svg>
